<?xml version="1.0" encoding="utf-8"?>
<!-- Generator: Adobe Illustrator 21.1.0, SVG Export Plug-In . SVG Version: 6.00 Build 0)  -->
<svg version="1.1" id="Layer_1" xmlns="http://www.w3.org/2000/svg" xmlns:xlink="http://www.w3.org/1999/xlink" x="0px" y="0px"
	 viewBox="0 0 33.9 46.7" style="enable-background:new 0 0 33.9 46.7;" xml:space="preserve">
<style type="text/css">
	.st0{fill:#4C4C4C;}
</style>
<path class="st0" d="M11.4,28.5l1.5,1.3L4.6,39.9C31.3,36.3,31.9,0.4,31.9,0l2,0c0,0.4-0.6,37.5-28.4,41.8l10.6,3l-0.5,1.9L0,42.3
	L11.4,28.5z"/>
</svg>
